<?xml version="1.0" encoding="UTF-8" standalone="no"?>
<!DOCTYPE svg PUBLIC "-//W3C//DTD SVG 1.1//EN"
 "http://www.w3.org/Graphics/SVG/1.1/DTD/svg11.dtd">
<!-- Generated by graphviz version 2.40.1 (20161225.0304)
 -->
<!-- Title: %3 Pages: 1 -->
<svg width="864pt" height="177pt"
 viewBox="0.00 0.00 864.00 177.36" xmlns="http://www.w3.org/2000/svg" xmlns:xlink="http://www.w3.org/1999/xlink">
<g id="graph0" class="graph" transform="scale(.9908 .9908) rotate(0) translate(4 175)">
<title>%3</title>
<polygon fill="#ffffff" stroke="transparent" points="-4,4 -4,-175 868,-175 868,4 -4,4"/>
<!-- master -->
<g id="node1" class="node">
<title>master</title>
<polygon fill="#000000" stroke="#000000" points="414,-171 360,-171 360,-135 414,-135 414,-171"/>
<text text-anchor="middle" x="387" y="-151.1" font-family="Times,serif" font-size="8.00" fill="#00ff00">master</text>
</g>
<!-- master&#45;c1 -->
<g id="node5" class="node">
<title>master&#45;c1</title>
<polygon fill="#ffffff" stroke="#000000" points="324,-117 270,-117 270,-81 324,-81 324,-117"/>
<text text-anchor="middle" x="297" y="-101.6" font-family="Times,serif" font-size="8.00" fill="#000000">Version la plus</text>
<text text-anchor="middle" x="297" y="-92.6" font-family="Times,serif" font-size="8.00" fill="#000000">récente</text>
</g>
<!-- master&#45;&gt;master&#45;c1 -->
<g id="edge1" class="edge">
<title>master&#45;&gt;master&#45;c1</title>
<path fill="none" stroke="#000000" d="M359.997,-136.7982C351.5314,-131.7188 342.0484,-126.029 333.0611,-120.6366"/>
<polygon fill="#000000" stroke="#000000" points="334.6707,-117.5208 324.295,-115.377 331.0692,-123.5232 334.6707,-117.5208"/>
</g>
<!-- task1 -->
<g id="node2" class="node">
<title>task1</title>
<polygon fill="#000000" stroke="#000000" points="504,-117 450,-117 450,-81 504,-81 504,-117"/>
<text text-anchor="middle" x="477" y="-97.1" font-family="Times,serif" font-size="8.00" fill="#00ff00">task1</text>
</g>
<!-- task1&#45;c1 -->
<g id="node9" class="node">
<title>task1&#45;c1</title>
<polygon fill="#ffffff" stroke="#000000" points="414,-117 360,-117 360,-81 414,-81 414,-117"/>
<text text-anchor="middle" x="387" y="-97.1" font-family="Times,serif" font-size="8.00" fill="#000000">Un commit</text>
</g>
<!-- task1&#45;&gt;task1&#45;c1 -->
<g id="edge2" class="edge">
<title>task1&#45;&gt;task1&#45;c1</title>
<path fill="none" stroke="#000000" d="M449.997,-99C441.9723,-99 433.0335,-99 424.4691,-99"/>
<polygon fill="#000000" stroke="#000000" points="424.295,-95.5001 414.295,-99 424.2949,-102.5001 424.295,-95.5001"/>
</g>
<!-- task2 -->
<g id="node3" class="node">
<title>task2</title>
<polygon fill="#000000" stroke="#000000" points="684,-90 630,-90 630,-54 684,-54 684,-90"/>
<text text-anchor="middle" x="657" y="-70.1" font-family="Times,serif" font-size="8.00" fill="#00ff00">task2</text>
</g>
<!-- task2&#45;c1 -->
<g id="node10" class="node">
<title>task2&#45;c1</title>
<polygon fill="#ffffff" stroke="#000000" points="594,-63 540,-63 540,-27 594,-27 594,-63"/>
<text text-anchor="middle" x="567" y="-43.1" font-family="Times,serif" font-size="8.00" fill="#000000">Un 3e commit</text>
</g>
<!-- task2&#45;&gt;task2&#45;c1 -->
<g id="edge3" class="edge">
<title>task2&#45;&gt;task2&#45;c1</title>
<path fill="none" stroke="#000000" d="M629.997,-63.8991C621.796,-61.4388 612.6401,-58.692 603.905,-56.0715"/>
<polygon fill="#000000" stroke="#000000" points="604.879,-52.7096 594.295,-53.1885 602.8675,-59.4144 604.879,-52.7096"/>
</g>
<!-- task3 -->
<g id="node4" class="node">
<title>task3</title>
<polygon fill="#000000" stroke="#000000" points="864,-36 810,-36 810,0 864,0 864,-36"/>
<text text-anchor="middle" x="837" y="-16.1" font-family="Times,serif" font-size="8.00" fill="#00ff00">task3</text>
</g>
<!-- task3&#45;c1 -->
<g id="node13" class="node">
<title>task3&#45;c1</title>
<polygon fill="#ffffff" stroke="#000000" points="774,-36 720,-36 720,0 774,0 774,-36"/>
<text text-anchor="middle" x="747" y="-16.1" font-family="Times,serif" font-size="8.00" fill="#000000">Un 2e commit</text>
</g>
<!-- task3&#45;&gt;task3&#45;c1 -->
<g id="edge4" class="edge">
<title>task3&#45;&gt;task3&#45;c1</title>
<path fill="none" stroke="#000000" d="M809.997,-18C801.9723,-18 793.0335,-18 784.4691,-18"/>
<polygon fill="#000000" stroke="#000000" points="784.295,-14.5001 774.295,-18 784.2949,-21.5001 784.295,-14.5001"/>
</g>
<!-- master&#45;c2 -->
<g id="node6" class="node">
<title>master&#45;c2</title>
<polygon fill="#ffffff" stroke="#000000" points="234,-117 180,-117 180,-81 234,-81 234,-117"/>
<text text-anchor="middle" x="207" y="-101.6" font-family="Times,serif" font-size="8.00" fill="#000000">Ancien</text>
<text text-anchor="middle" x="207" y="-92.6" font-family="Times,serif" font-size="8.00" fill="#000000">commit</text>
</g>
<!-- master&#45;c1&#45;&gt;master&#45;c2 -->
<g id="edge5" class="edge">
<title>master&#45;c1&#45;&gt;master&#45;c2</title>
<path fill="none" stroke="#000000" d="M269.997,-99C261.9723,-99 253.0335,-99 244.4691,-99"/>
<polygon fill="#000000" stroke="#000000" points="244.295,-95.5001 234.295,-99 244.2949,-102.5001 244.295,-95.5001"/>
</g>
<!-- master&#45;c3 -->
<g id="node7" class="node">
<title>master&#45;c3</title>
<polygon fill="#ffffff" stroke="#000000" points="144,-117 90,-117 90,-81 144,-81 144,-117"/>
<text text-anchor="middle" x="117" y="-101.6" font-family="Times,serif" font-size="8.00" fill="#000000">Commit plus</text>
<text text-anchor="middle" x="117" y="-92.6" font-family="Times,serif" font-size="8.00" fill="#000000">ancien</text>
</g>
<!-- master&#45;c2&#45;&gt;master&#45;c3 -->
<g id="edge6" class="edge">
<title>master&#45;c2&#45;&gt;master&#45;c3</title>
<path fill="none" stroke="#000000" d="M179.997,-99C171.9723,-99 163.0335,-99 154.4691,-99"/>
<polygon fill="#000000" stroke="#000000" points="154.295,-95.5001 144.295,-99 154.2949,-102.5001 154.295,-95.5001"/>
</g>
<!-- master&#45;c4 -->
<g id="node8" class="node">
<title>master&#45;c4</title>
<polygon fill="#ffffff" stroke="#000000" points="54,-117 0,-117 0,-81 54,-81 54,-117"/>
<text text-anchor="middle" x="27" y="-97.1" font-family="Times,serif" font-size="8.00" fill="#000000">...</text>
</g>
<!-- master&#45;c3&#45;&gt;master&#45;c4 -->
<g id="edge7" class="edge">
<title>master&#45;c3&#45;&gt;master&#45;c4</title>
<path fill="none" stroke="#000000" d="M89.997,-99C81.9723,-99 73.0335,-99 64.4691,-99"/>
<polygon fill="#000000" stroke="#000000" points="64.295,-95.5001 54.295,-99 64.2949,-102.5001 64.295,-95.5001"/>
</g>
<!-- task1&#45;c1&#45;&gt;master&#45;c1 -->
<g id="edge8" class="edge">
<title>task1&#45;c1&#45;&gt;master&#45;c1</title>
<path fill="none" stroke="#000000" d="M359.997,-99C351.9723,-99 343.0335,-99 334.4691,-99"/>
<polygon fill="#000000" stroke="#000000" points="334.295,-95.5001 324.295,-99 334.2949,-102.5001 334.295,-95.5001"/>
</g>
<!-- task2&#45;c2 -->
<g id="node11" class="node">
<title>task2&#45;c2</title>
<polygon fill="#ffffff" stroke="#000000" points="504,-63 450,-63 450,-27 504,-27 504,-63"/>
<text text-anchor="middle" x="477" y="-43.1" font-family="Times,serif" font-size="8.00" fill="#000000">Un 2e commit</text>
</g>
<!-- task2&#45;c1&#45;&gt;task2&#45;c2 -->
<g id="edge9" class="edge">
<title>task2&#45;c1&#45;&gt;task2&#45;c2</title>
<path fill="none" stroke="#000000" d="M539.997,-45C531.9723,-45 523.0335,-45 514.4691,-45"/>
<polygon fill="#000000" stroke="#000000" points="514.295,-41.5001 504.295,-45 514.2949,-48.5001 514.295,-41.5001"/>
</g>
<!-- task2&#45;c3 -->
<g id="node12" class="node">
<title>task2&#45;c3</title>
<polygon fill="#ffffff" stroke="#000000" points="414,-63 360,-63 360,-27 414,-27 414,-63"/>
<text text-anchor="middle" x="387" y="-43.1" font-family="Times,serif" font-size="8.00" fill="#000000">Un commit</text>
</g>
<!-- task2&#45;c2&#45;&gt;task2&#45;c3 -->
<g id="edge10" class="edge">
<title>task2&#45;c2&#45;&gt;task2&#45;c3</title>
<path fill="none" stroke="#000000" d="M449.997,-45C441.9723,-45 433.0335,-45 424.4691,-45"/>
<polygon fill="#000000" stroke="#000000" points="424.295,-41.5001 414.295,-45 424.2949,-48.5001 424.295,-41.5001"/>
</g>
<!-- task2&#45;c3&#45;&gt;master&#45;c1 -->
<g id="edge11" class="edge">
<title>task2&#45;c3&#45;&gt;master&#45;c1</title>
<path fill="none" stroke="#000000" d="M359.997,-61.2018C351.5314,-66.2812 342.0484,-71.971 333.0611,-77.3634"/>
<polygon fill="#000000" stroke="#000000" points="331.0692,-74.4768 324.295,-82.623 334.6707,-80.4792 331.0692,-74.4768"/>
</g>
<!-- task3&#45;c2 -->
<g id="node14" class="node">
<title>task3&#45;c2</title>
<polygon fill="#ffffff" stroke="#000000" points="684,-36 630,-36 630,0 684,0 684,-36"/>
<text text-anchor="middle" x="657" y="-16.1" font-family="Times,serif" font-size="8.00" fill="#000000">Un commit</text>
</g>
<!-- task3&#45;c1&#45;&gt;task3&#45;c2 -->
<g id="edge12" class="edge">
<title>task3&#45;c1&#45;&gt;task3&#45;c2</title>
<path fill="none" stroke="#000000" d="M719.997,-18C711.9723,-18 703.0335,-18 694.4691,-18"/>
<polygon fill="#000000" stroke="#000000" points="694.295,-14.5001 684.295,-18 694.2949,-21.5001 694.295,-14.5001"/>
</g>
<!-- task3&#45;c2&#45;&gt;task2&#45;c1 -->
<g id="edge13" class="edge">
<title>task3&#45;c2&#45;&gt;task2&#45;c1</title>
<path fill="none" stroke="#000000" d="M629.997,-26.1009C621.796,-28.5612 612.6401,-31.308 603.905,-33.9285"/>
<polygon fill="#000000" stroke="#000000" points="602.8675,-30.5856 594.295,-36.8115 604.879,-37.2904 602.8675,-30.5856"/>
</g>
</g>
</svg>
